%YAML 1.1
%TAG !u! tag:unity3d.com,2011:
--- !u!74 &7400000
AnimationClip:
  m_ObjectHideFlags: 0
  m_CorrespondingSourceObject: {fileID: 0}
  m_PrefabInternal: {fileID: 0}
  m_Name: hadouken
  serializedVersion: 6
  m_Legacy: 0
  m_Compressed: 0
  m_UseHighQualityCurve: 1
  m_RotationCurves: []
  m_CompressedRotationCurves: []
  m_EulerCurves: []
  m_PositionCurves: []
  m_ScaleCurves: []
  m_FloatCurves: []
  m_PPtrCurves:
  - curve:
    - time: 0
      value: {fileID: 21300042, guid: 3ec4f1ffd2829d9449f768f47e9d2799, type: 3}
    - time: 0.05
      value: {fileID: 21300044, guid: 3ec4f1ffd2829d9449f768f47e9d2799, type: 3}
    - time: 0.1
      value: {fileID: 21300046, guid: 3ec4f1ffd2829d9449f768f47e9d2799, type: 3}
    - time: 0.15
      value: {fileID: 21300048, guid: 3ec4f1ffd2829d9449f768f47e9d2799, type: 3}
    - time: 0.2
      value: {fileID: 21300050, guid: 3ec4f1ffd2829d9449f768f47e9d2799, type: 3}
    - time: 0.25
      value: {fileID: 21300052, guid: 3ec4f1ffd2829d9449f768f47e9d2799, type: 3}
    - time: 0.3
      value: {fileID: 21300054, guid: 3ec4f1ffd2829d9449f768f47e9d2799, type: 3}
    - time: 0.35
      value: {fileID: 21300056, guid: 3ec4f1ffd2829d9449f768f47e9d2799, type: 3}
    - time: 0.4
      value: {fileID: 21300058, guid: 3ec4f1ffd2829d9449f768f47e9d2799, type: 3}
    - time: 0.45
      value: {fileID: 21300060, guid: 3ec4f1ffd2829d9449f768f47e9d2799, type: 3}
    - time: 0.5
      value: {fileID: 21300062, guid: 3ec4f1ffd2829d9449f768f47e9d2799, type: 3}
    attribute: m_Sprite
    path: 
    classID: 212
    script: {fileID: 0}
  m_SampleRate: 20
  m_WrapMode: 0
  m_Bounds:
    m_Center: {x: 0, y: 0, z: 0}
    m_Extent: {x: 0, y: 0, z: 0}
  m_ClipBindingConstant:
    genericBindings:
    - serializedVersion: 2
      path: 0
      attribute: 0
      script: {fileID: 0}
      typeID: 212
      customType: 23
      isPPtrCurve: 1
    pptrCurveMapping:
    - {fileID: 21300042, guid: 3ec4f1ffd2829d9449f768f47e9d2799, type: 3}
    - {fileID: 21300044, guid: 3ec4f1ffd2829d9449f768f47e9d2799, type: 3}
    - {fileID: 21300046, guid: 3ec4f1ffd2829d9449f768f47e9d2799, type: 3}
    - {fileID: 21300048, guid: 3ec4f1ffd2829d9449f768f47e9d2799, type: 3}
    - {fileID: 21300050, guid: 3ec4f1ffd2829d9449f768f47e9d2799, type: 3}
    - {fileID: 21300052, guid: 3ec4f1ffd2829d9449f768f47e9d2799, type: 3}
    - {fileID: 21300054, guid: 3ec4f1ffd2829d9449f768f47e9d2799, type: 3}
    - {fileID: 21300056, guid: 3ec4f1ffd2829d9449f768f47e9d2799, type: 3}
    - {fileID: 21300058, guid: 3ec4f1ffd2829d9449f768f47e9d2799, type: 3}
    - {fileID: 21300060, guid: 3ec4f1ffd2829d9449f768f47e9d2799, type: 3}
    - {fileID: 21300062, guid: 3ec4f1ffd2829d9449f768f47e9d2799, type: 3}
  m_AnimationClipSettings:
    serializedVersion: 2
    m_AdditiveReferencePoseClip: {fileID: 0}
    m_AdditiveReferencePoseTime: 0
    m_StartTime: 0
    m_StopTime: 0.55
    m_OrientationOffsetY: 0
    m_Level: 0
    m_CycleOffset: 0
    m_HasAdditiveReferencePose: 0
    m_LoopTime: 1
    m_LoopBlend: 0
    m_LoopBlendOrientation: 0
    m_LoopBlendPositionY: 0
    m_LoopBlendPositionXZ: 0
    m_KeepOriginalOrientation: 0
    m_KeepOriginalPositionY: 1
    m_KeepOriginalPositionXZ: 0
    m_HeightFromFeet: 0
    m_Mirror: 0
  m_EditorCurves: []
  m_EulerEditorCurves: []
  m_HasGenericRootTransform: 0
  m_HasMotionFloatCurves: 0
  m_GenerateMotionCurves: 0
  m_Events:
  - time: 0.2
    functionName: Hadouken
    data: 
    objectReferenceParameter: {fileID: 0}
    floatParameter: 0
    intParameter: 0
    messageOptions: 0
